…
## Example

`tinytiger` provides lightweight functions to download Census Bureau
TIGER/Line Shapefiles. To download a geography, simply use the function
corresponding to one of the supported geographies.

``` r
library(tinytiger)
tt_counties("NY")
#> Simple feature collection with 62 features and 17 fields
#> Geometry type: MULTIPOLYGON
#> Dimension:     XY
#> Bounding box:  xmin: -79.76259 ymin: 40.47658 xmax: -71.77749 ymax: 45.01586
#> Geodetic CRS:  NAD83
#> # A tibble: 62 × 18
#>    STATEFP COUNTYFP COUNT…¹ GEOID NAME  NAMEL…² LSAD  CLASSFP MTFCC CSAFP CBSAFP
#>  * <chr>   <chr>    <chr>   <chr> <chr> <chr>   <chr> <chr>   <chr> <chr> <chr> 
#>  1 36      101      009741… 36101 Steu… Steube… 06    H1      G4020 236   18500 
#>  2 36      091      009741… 36091 Sara… Sarato… 06    H1      G4020 104   10580 
#>  3 36      003      009741… 36003 Alle… Allega… 06    H1      G4020 <NA>  <NA>  
#>  4 36      075      009741… 36075 Oswe… Oswego… 06    H1      G4020 532   45060 
#>  5 36      111      009741… 36111 Ulst… Ulster… 06    H1      G4020 408   28740 
#>  6 36      089      009773… 36089 St. … St. La… 06    H1      G4020 <NA>  36300 
#>  7 36      097      009741… 36097 Schu… Schuyl… 06    H1      G4020 <NA>  <NA>  
#>  8 36      031      009741… 36031 Essex Essex … 06    H1      G4020 <NA>  <NA>  
#>  9 36      103      009741… 36103 Suff… Suffol… 06    H1      G4020 408   35620 
#> 10 36      041      009741… 36041 Hami… Hamilt… 06    H1      G4020 <NA>  <NA>  
#> # … with 52 more rows, 7 more variables: METDIVFP <chr>, FUNCSTAT <chr>,
#> #   ALAND <dbl>, AWATER <dbl>, INTPTLAT <chr>, INTPTLON <chr>,
#> #   geometry <MULTIPOLYGON [°]>, and abbreviated variable names ¹​COUNTYNS,
#> #   ²​NAMELSAD
#> # ℹ Use `print(n = ...)` to see more rows, and `colnames()` to see all variable names
```
…
