Download TIGER shapes for American Indian / Alaska Native / Native Hawaiian Areas — tt_ai_an_nh_areas • tinytiger
…
    Value

    sf data.frame

    Examples

# Wrapped in try due to false positive 304 errors
try(tt_ai_an_nh_areas())
#> Simple feature collection with 864 features and 16 fields
#> Geometry type: MULTIPOLYGON
#> Dimension:     XY
#> Bounding box:  xmin: -174.236 ymin: 18.91069 xmax: -67.03552 ymax: 71.34019
#> Geodetic CRS:  NAD83
#> # A tibble: 864 × 17
#>    AIANNHCE AIANNHNS GEOID GEOIDFQ  NAME  NAMELSAD LSAD  CLASSFP COMPTYP AIANNHR
#>    <chr>    <chr>    <chr> <chr>    <chr> <chr>    <chr> <chr>   <chr>   <chr>  
#>  1 2320     02419022 2320R 2520000… Mohe… Mohegan… 86    D2      R       F      
#>  2 9100     01930930 9100R 2520000… Gold… Golden … 86    D4      R       S      
#>  3 4110     02419484 4110R 2520000… Tabl… Table M… 85    D8      R       F      
#>  4 1380     01666180 1380R 2520000… Gree… Greenvi… 85    D2      R       F      
#>  5 1110     00806894 1110R 2520000… Flat… Flathea… 86    D2      R       F      
#>  6 0290     00264455 0290R 2520000… Bish… Bishop … 86    D2      R       F      
#>  7 1075     00840414 1075R 2520000… Fall… Fallon … 86    D8      R       F      
#>  8 4515     00857504 4515R 2520000… Walk… Walker … 86    D2      R       F      
#>  9 1995     00272219 1995R 2520000… Los … Los Coy… 86    D2      R       F      
#> 10 2115     00245463 2115R 2520000… Manz… Manzani… 86    D8      R       F      
#> # ℹ 854 more rows
#> # ℹ 7 more variables: MTFCC <chr>, FUNCSTAT <chr>, ALAND <dbl>, AWATER <dbl>,
#> #   INTPTLAT <chr>, INTPTLON <chr>, geometry <MULTIPOLYGON [°]>
…
