Download TIGER shapes for Core Based Statistical Areas — tt_cbsa • tinytiger
…
    Value

sf data.frame

    Examples

tt_cbsa()
#> Simple feature collection with 939 features and 12 fields
#> Geometry type: MULTIPOLYGON
#> Dimension:     XY
#> Bounding box:  xmin: -178.4436 ymin: 17.83151 xmax: -65.42271 ymax: 65.45352
#> Geodetic CRS:  NAD83
#> # A tibble: 939 × 13
#>    CSAFP CBSAFP GEOID NAME      NAMEL…¹ LSAD  MEMI  MTFCC   ALAND AWATER INTPT…²
#>    <chr> <chr>  <chr> <chr>     <chr>   <chr> <chr> <chr>   <dbl>  <dbl> <chr>  
#>  1 122   12020  12020 Athens-C… Athens… M1    1     G3110 2.65e 9 2.61e7 +33.94…
#>  2 122   12060  12060 Atlanta-… Atlant… M1    1     G3110 2.25e10 3.87e8 +33.69…
#>  3 428   12100  12100 Atlantic… Atlant… M1    1     G3110 1.44e 9 3.01e8 +39.46…
#>  4 426   12120  12120 Atmore, … Atmore… M2    2     G3110 2.45e 9 2.00e7 +31.12…
#>  5 258   12140  12140 Auburn, … Auburn… M2    2     G3110 9.40e 8 2.66e6 +41.39…
#>  6 532   12180  12180 Auburn, … Auburn… M2    2     G3110 1.79e 9 4.46e8 +43.00…
#>  7 194   12220  12220 Auburn-O… Auburn… M1    1     G3110 1.57e 9 2.15e7 +32.60…
#>  8 NA    12260  12260 Augusta-… August… M1    1     G3110 9.02e 9 2.62e8 +33.46…
#>  9 NA    12300  12300 Augusta-… August… M2    2     G3110 2.25e 9 2.17e8 +44.41…
#> 10 462   12380  12380 Austin, … Austin… M2    2     G3110 1.84e 9 6.17e5 +43.66…
#> # … with 929 more rows, 2 more variables: INTPTLON <chr>,
#> #   geometry <MULTIPOLYGON [°]>, and abbreviated variable names ¹​NAMELSAD,
#> #   ²​INTPTLAT
#> # ℹ Use `print(n = ...)` to see more rows, and `colnames()` to see all variable names
…
