Download TIGER shapes for Subbarrios (Puerto Rico) — tt_subbarrios • tinytiger
…
    Value

sf data.frame

    Examples

# Wrapped in try due to false positive 304 errors
try(tt_subbarrios())
#> Simple feature collection with 145 features and 16 fields
#> Geometry type: MULTIPOLYGON
#> Dimension:     XY
#> Bounding box:  xmin: -67.19246 ymin: 17.91081 xmax: -65.6246 ymax: 18.4876
#> Geodetic CRS:  NAD83
#> # A tibble: 145 × 17
#>    STATEFP COUNTYFP COUSUBFP SUBMCDFP SUBMCDNS GEOID NAME  NAMEL…¹ LSAD  CLASSFP
#>    <chr>   <chr>    <chr>    <chr>    <chr>    <chr> <chr> <chr>   <chr> <chr>  
#>  1 72      131      77543    56650    02415726 7213… Norz… Norzag… 51    Z6     
#>  2 72      131      77543    84470    02416083 7213… Urré… Urréjo… 51    Z6     
#>  3 72      097      52474    12405    02415239 7209… Cand… Candel… 51    Z6     
#>  4 72      097      52474    75200    02415984 7209… Salud Salud … 51    Z6     
#>  5 72      127      79693    42932    02415573 7212… Las … Las Ca… 51    Z6     
#>  6 72      127      79693    30080    02415430 7212… Gand… Gandul… 51    Z6     
#>  7 72      127      79693    53638    02415686 7212… Mira… Mirama… 51    Z6     
#>  8 72      127      84079    84771    02416087 7212… Vale… Valenc… 51    Z6     
#>  9 72      127      79693    52900    02415673 7212… Meli… Melill… 51    Z6     
#> 10 72      127      34070    39714    02415560 7212… La 37 La 37 … 51    Z6     
#> # … with 135 more rows, 7 more variables: MTFCC <chr>, FUNCSTAT <chr>,
#> #   ALAND <dbl>, AWATER <dbl>, INTPTLAT <chr>, INTPTLON <chr>,
#> #   geometry <MULTIPOLYGON [°]>, and abbreviated variable name ¹​NAMELSAD
…
