Download TIGER shapes for Urban Area — tt_uac • tinytiger
…
    Value

sf data.frame

    Examples

 # takes > 5 seconds
# Wrapped in try due to false positive 304 errors
try(tt_uac())
#> Simple feature collection with 3601 features and 12 fields
#> Geometry type: MULTIPOLYGON
#> Dimension:     XY
#> Bounding box:  xmin: -170.7892 ymin: -14.37378 xmax: 145.7909 ymax: 71.30684
#> Geodetic CRS:  NAD83
#> # A tibble: 3,601 × 13
#>    UACE10 GEOID10 NAME10  NAMEL…¹ LSAD10 MTFCC10 UATYP10 FUNCS…² ALAND10 AWATE…³
#>    <chr>  <chr>   <chr>   <chr>   <chr>  <chr>   <chr>   <chr>     <dbl>   <dbl>
#>  1 24310  24310   Dixon,… Dixon,… 76     G3500   C       S        2.56e7  938057
#>  2 27847  27847   Escana… Escana… 76     G3500   C       S        4.66e7  283456
#>  3 18100  18100   Clinto… Clinto… 76     G3500   C       S        5.85e6  502563
#>  4 06166  06166   Bedfor… Bedfor… 76     G3500   C       S        3.04e7    2314
#>  5 75270  75270   Riverd… Riverd… 76     G3500   C       S        2.31e6       0
#>  6 90946  90946   Visali… Visali… 75     G3500   U       S        1.64e8   39512
#>  7 74044  74044   Reedle… Reedle… 76     G3500   C       S        2.97e7  102282
#>  8 24445  24445   Dos Pa… Dos Pa… 76     G3500   C       S        5.50e6       0
#>  9 56251  56251   Merced… Merced… 75     G3500   U       S        1.23e8   11735
#> 10 28657  28657   Fairfi… Fairfi… 75     G3500   U       S        1.02e8  318810
#> # … with 3,591 more rows, 3 more variables: INTPTLAT10 <chr>, INTPTLON10 <chr>,
#> #   geometry <MULTIPOLYGON [°]>, and abbreviated variable names ¹​NAMELSAD10,
#> #   ²​FUNCSTAT10, ³​AWATER10
#> # ℹ Use `print(n = ...)` to see more rows, and `colnames()` to see all variable names
…
